data/samples/sample_compare.vcd
$date
  2026-01-19
$end
$version
  WaveGauge Sample Compare
$end
$timescale 1ns $end
$scope module top $end
$var wire 1 ! clk $end
$var wire 4 " sm_active $end
$var wire 3 # dram_read $end
$var wire 3 $ dram_write $end
$var wire 4 % l2_hit $end
$var wire 2 & inst_event $end
$upscope $end
$enddefinitions $end
#0
0!
b0001 "
b001 #
b000 $
b0010 %
b01 &
#10
1!
b0011 "
b010 #
b001 $
b0100 %
b00 &
#20
0!
b0101 "
b011 #
b010 $
b0110 %
b10 &
#30
1!
b0111 "
b100 #
b011 $
b1001 %
b00 &
#40
0!
b1001 "
b101 #
b100 $
b1011 %
b01 &
#50
1!
b1011 "
b110 #
b101 $
b1101 %
b11 &
#60
0!
b1101 "
b111 #
b110 $
b1111 %
b00 &
#70
1!
b1111 "
b000 #
b111 $
b0001 %
b10 &
#80
0!
b0000 "
b001 #
b000 $
b0011 %
b00 &
#90
1!
b0010 "
b010 #
b001 $
b0101 %
b01 &
#100
0!
b0100 "
b011 #
b010 $
b0111 %
b00 &
#110
1!
b0110 "
b100 #
b011 $
b1000 %
b10 &
#120
0!
b1000 "
b101 #
b100 $
b1010 %
b00 &
#130
1!
b1010 "
b110 #
b101 $
b1100 %
b11 &
#140
0!
b1100 "
b111 #
b110 $
b1110 %
b00 &
#150
1!
b1110 "
b000 #
b111 $
b0000 %
b01 &
#160
0!
b0001 "
b001 #
b000 $
b0010 %
b00 &
#170
1!
b0011 "
b010 #
b001 $
b0100 %
b10 &
#180
0!
b0101 "
b011 #
b010 $
b0110 %
b00 &
#190
1!
b0111 "
b100 #
b011 $
b1001 %
b01 &
#200
0!
b1001 "
b101 #
b100 $
b1011 %
b11 &
