data/samples/sample_compare.vcd
$date
  2026-01-19
$end
$version
  WaveGauge Sample Compare
$end
$timescale 1ns $end
$scope module top $end
$var wire 1 ! clk $end
$var wire 4 " sm_active $end
$var wire 3 # dram_read $end
$var wire 3 $ dram_write $end
$var wire 4 % l2_hit $end
$var wire 2 & inst_event $end
$var wire 3 ' inst_state $end
$upscope $end
$enddefinitions $end
#0
0!
b0001 "
b001 #
b000 $
b0010 %
b01 &
b000 '
#7
b011 '
#10
1!
b0011 "
b010 #
b001 $
b0100 %
b00 &
b101 '
#18
b110 '
#20
0!
b0101 "
b011 #
b010 $
b0110 %
b10 &
b010 '
#27
b001 '
#30
1!
b0111 "
b100 #
b011 $
b1001 %
b00 &
b111 '
#38
b100 '
#40
0!
b1001 "
b101 #
b100 $
b1011 %
b01 &
b000 '
#50
1!
b1011 "
b110 #
b101 $
b1101 %
b11 &
b010 '
#58
b011 '
#60
0!
b1101 "
b111 #
b110 $
b1111 %
b00 &
b001 '
#70
1!
b1111 "
b000 #
b111 $
b0001 %
b10 &
#72
b111 '
#80
0!
b0000 "
b001 #
b000 $
b0011 %
b00 &
b101 '
#90
1!
b0010 "
b010 #
b001 $
b0101 %
b01 &
b000 '
#100
0!
b0100 "
b011 #
b010 $
b0111 %
b00 &
#105
b110 '
#110
1!
b0110 "
b100 #
b011 $
b1000 %
b10 &
b010 '
#120
0!
b1000 "
b101 #
b100 $
b1010 %
b00 &
#123
b011 '
#130
1!
b1010 "
b110 #
b101 $
b1100 %
b11 &
b001 '
#140
0!
b1100 "
b111 #
b110 $
b1110 %
b00 &
b111 '
#150
1!
b1110 "
b000 #
b111 $
b0000 %
b01 &
b100 '
#160
0!
b0001 "
b001 #
b000 $
b0010 %
b00 &
#162
b000 '
#170
1!
b0011 "
b010 #
b001 $
b0100 %
b10 &
b010 '
#180
0!
b0101 "
b011 #
b010 $
b0110 %
b00 &
b011 '
#190
1!
b0111 "
b100 #
b011 $
b1001 %
b01 &
b101 '
#200
0!
b1001 "
b101 #
b100 $
b1011 %
b11 &
b000 '
