backend/sample_compare.vcd
$date
  2026-01-19
$end
$version
  WaveGauge Sample Compare
$end
$timescale 1ns $end
$scope module top $end
$var wire 1 ! clk $end
$var wire 1 " sm_active $end
$var wire 1 # dram_read $end
$var wire 1 $ dram_write $end
$var wire 1 % l2_hit $end
$upscope $end
$enddefinitions $end
#0
0!
1"
0#
1$
0%
#10
1!
0"
1#
0$
1%
#20
0!
1"
1#
1$
1%
#30
1!
0"
0#
1$
0%
#40
0!
1"
1#
0$
1%
#50
1!
1"
0#
1$
0%
#60
0!
0"
1#
1$
1%
#70
1!
1"
1#
0$
0%
#80
0!
0"
0#
1$
1%
